C:\Users\antho\Documents\NetBeansProjects\TiendaJEE\TiendaJEE-ejb\src\main\java\com\entidades\session\EmpeladoFacade.java
C:\Users\antho\Documents\NetBeansProjects\TiendaJEE\TiendaJEE-ejb\src\main\java\com\entidades\session\EmpeladoFacadeLocal.java
C:\Users\antho\Documents\NetBeansProjects\TiendaJEE\TiendaJEE-ejb\src\main\java\com\entidades\session\CargoFacade.java
C:\Users\antho\Documents\NetBeansProjects\TiendaJEE\TiendaJEE-ejb\src\main\java\com\entidades\session\CargoFacadeLocal.java
C:\Users\antho\Documents\NetBeansProjects\TiendaJEE\TiendaJEE-ejb\src\main\java\com\tienda\entidades\EstadoCivil.java
C:\Users\antho\Documents\NetBeansProjects\TiendaJEE\TiendaJEE-ejb\src\main\java\com\entidades\session\AbstractFacade.java
C:\Users\antho\Documents\NetBeansProjects\TiendaJEE\TiendaJEE-ejb\src\main\java\com\entidades\session\EstadoCivilFacade.java
C:\Users\antho\Documents\NetBeansProjects\TiendaJEE\TiendaJEE-ejb\src\main\java\com\entidades\session\EstadoCivilFacadeLocal.java
C:\Users\antho\Documents\NetBeansProjects\TiendaJEE\TiendaJEE-ejb\src\main\java\com\tienda\entidades\Empelado.java
C:\Users\antho\Documents\NetBeansProjects\TiendaJEE\TiendaJEE-ejb\src\main\java\com\tienda\entidades\Cargo.java
